{
    "data": [
    {
      "Date Of Stop": "09/24/2013",
      "Time Of Stop": "17:11:00",
      "Agency": "MCP",
      "SubAgency": "3rd district, Silver Spring",
      "Description": "DRIVING VEHICLE ON HIGHWAY WITH SUSPENDED REGISTRATION",
      "Location": "8804 FLOWER AVE",
      "Accident": "No",
      "Belts": "No",
      "Personal Injury": "No",
      "Property Damage": "No",
      "Fatal": "No",
      "Commercial License": "No",
      "HAZMAT": "No",
      "Commercial Vehicle": "No",
      "Alcohol": "No",
      "Work Zone": "No",
      "State": "MD",
      "VehicleType": "02 - Automobile",
      "Year": 2008,
      "Make": "FORD",
      "Model": "4S",
      "Color": "BLACK",
      "Violation Type": "Citation",
      "Charge": "13-401(h)",
      "Article": "Transportation Article",
      "Contributed To Accident": "No",
      "Race": "BLACK",
      "Gender": "M",
      "Driver City": "TAKOMA PARK",
      "Driver State": "MD",
      "DL State": "MD",
      "Arrest Type": "A - Marked Patrol"
    },
    {
      "Date Of Stop": "08/29/2017",
      "Time Of Stop": "10:19:00",
      "Agency": "MCP",
      "SubAgency": "2nd district, Bethesda",
      "Description": "FAILURE YIELD RIGHT OF WAY ON U TURN",
      "Location": "CHERRY HILL RD./CALVERTON BLVD.",
      "Latitude": 38.98172,
      "Longitude": -77.09276,
      "Accident": "No",
      "Belts": "No",
      "Personal Injury": "No",
      "Property Damage": "No",
      "Fatal": "No",
      "Commercial License": "No",
      "HAZMAT": "No",
      "Commercial Vehicle": "No",
      "Alcohol": "No",
      "Work Zone": "No",
      "State": "VA",
      "VehicleType": "02 - Automobile",
      "Year": 2001,
      "Make": "TOYOTA",
      "Model": "COROLLA",
      "Color": "GREEN",
      "Violation Type": "Citation",
      "Charge": "21-201(a1)",
      "Article": "Transportation Article",
      "Contributed To Accident": "No",
      "Race": "WHITE",
      "Gender": "F",
      "Driver City": "FAIRFAX STATION",
      "Driver State": "VA",
      "DL State": "VA",
      "Arrest Type": "A - Marked Patrol",
      "Geolocation": "(38.981725, -77.0927566666667)"
    },
    {
      "Date Of Stop": "12/01/2014",
      "Time Of Stop": "12:52:00",
      "Agency": "MCP",
      "SubAgency": "6th district, Gaithersburg / Montgomery Village",
      "Description": "FAILURE STOP AND YIELD AT THRU HWY",
      "Location": "CHRISTOPHER AVE/MONTGOMERY VILLAGE AVE",
      "Latitude": 39.16289,
      "Longitude": -77.22909,
      "Accident": "No",
      "Belts": "No",
      "Personal Injury": "No",
      "Property Damage": "Yes",
      "Fatal": "No",
      "Commercial License": "No",
      "HAZMAT": "No",
      "Commercial Vehicle": "No",
      "Alcohol": "No",
      "Work Zone": "No",
      "State": "MD",
      "VehicleType": "02 - Automobile",
      "Year": 2001,
      "Make": "HONDA",
      "Model": "ACCORD",
      "Color": "SILVER",
      "Violation Type": "Citation",
      "Charge": "21-403(b)",
      "Article": "Transportation Article",
      "Contributed To Accident": "No",
      "Race": "BLACK",
      "Gender": "F",
      "Driver City": "UPPER MARLBORO",
      "Driver State": "MD",
      "DL State": "MD",
      "Arrest Type": "A - Marked Patrol",
      "Geolocation": "(39.1628883333333, -77.2290883333333)"
    },
    {
      "Date Of Stop": "08/29/2017",
      "Time Of Stop": "09:22:00",
      "Agency": "MCP",
      "SubAgency": "3rd district, Silver Spring",
      "Description": "FAILURE YIELD RIGHT OF WAY ON U TURN",
      "Location": "CHERRY HILL RD./CALVERTON BLVD.",
      "Latitude": 39.05698,
      "Longitude": -76.95463,
      "Accident": "No",
      "Belts": "No",
      "Personal Injury": "No",
      "Property Damage": "Yes",
      "Fatal": "No",
      "Commercial License": "No",
      "HAZMAT": "No",
      "Commercial Vehicle": "No",
      "Alcohol": "No",
      "Work Zone": "No",
      "State": "MD",
      "VehicleType": "02 - Automobile",
      "Year": 1998,
      "Make": "DODG",
      "Model": "DAKOTA",
      "Color": "WHITE",
      "Violation Type": "Citation",
      "Charge": "21-402(b)",
      "Article": "Transportation Article",
      "Contributed To Accident": "No",
      "Race": "BLACK",
      "Gender": "M",
      "Driver City": "FORT WASHINGTON",
      "Driver State": "MD",
      "DL State": "MD",
      "Arrest Type": "A - Marked Patrol",
      "Geolocation": "(39.056975, -76.9546333333333)"
    },
    {
      "Date Of Stop": "08/28/2017",
      "Time Of Stop": "23:41:00",
      "Agency": "MCP",
      "SubAgency": "6th district, Gaithersburg / Montgomery Village",
      "Description": "FAILURE OF DR. TO MAKE LANE CHANGE TO AVAIL. LANE NOT IMMED. ADJ. TO STOPPED EMERG. VEH,",
      "Location": "355 @ SOUTH WESTLAND DRIVE",
      "Accident": "No",
      "Belts": "No",
      "Personal Injury": "No",
      "Property Damage": "No",
      "Fatal": "No",
      "Commercial License": "No",
      "HAZMAT": "No",
      "Commercial Vehicle": "No",
      "Alcohol": "No",
      "Work Zone": "No",
      "State": "MD",
      "VehicleType": "02 - Automobile",
      "Year": 2015,
      "Make": "MINI COOPER",
      "Model": "2S",
      "Color": "WHITE",
      "Violation Type": "Citation",
      "Charge": "21-405(e1)",
      "Article": "Transportation Article",
      "Contributed To Accident": "No",
      "Race": "WHITE",
      "Gender": "M",
      "Driver City": "GAITHERSBURG",
      "Driver State": "MD",
      "DL State": "MD",
      "Arrest Type": "A - Marked Patrol"
      }
  ]
}
